…
```
## NULL
```

```r
## OUTLIERS
EXP %>%
  group_by(Condition, Time) %>%
  identify_outliers(Mean)
```

```
## # A tibble: 21 x 8
##    Condition Time  Day   ID    count  Mean is.outlier is.extreme
##    <fct>     <fct> <fct> <fct> <int> <dbl> <lgl>      <lgl>     
##  1 HCL       1     1     63       44 0.326 TRUE       FALSE     
##  2 HCL       1     1     95       44 0.318 TRUE       FALSE     
##  3 HCL       1     2     63       44 0.425 TRUE       FALSE     
##  4 HCL       1     2     95       44 0.378 TRUE       FALSE     
##  5 HCL       2     2     95       52 0.320 TRUE       FALSE     
##  6 LCL       1     1     4        44 0.574 TRUE       FALSE     
##  7 LCL       1     1     9        44 0.153 TRUE       TRUE      
##  8 LCL       1     1     16       44 0.245 TRUE       TRUE      
##  9 LCL       1     1     20       44 0.598 TRUE       FALSE     
## 10 LCL       1     1     27       44 0.630 TRUE       FALSE     
## # ... with 11 more rows
```
…
